{
    "URL": "millo-baut-einen-schneemann",
    "Titel": "Millo baut einen Schneemann",
    "Datum": "01.01.2010",
    "Autor*in": "Wenniges, Oliver",
    "ISBN": "978-3-596-85193-5",
    "Übersetzer*in": "",
    "Ori. Sprache": "",
    "Illustrator*in": "Wenniges, Oliver",
    "Seitenanzahl": "30",
    "Verlag": "Fischer Schatzinsel",
    "Gattung": "",
    "Jahr": "2005",
    "Lesealter": [
        "4-5 Jahre",
        "6-7 Jahre"
    ],
    "Einsatzmöglichkeiten": "Bücherei",
    "Preis": "12,50 €",
    "Bewertung": "empfehlenswert",
    "Schlagwörter": [
        "Abenteuer",
        "Gender/Geschlecht"
    ],
    "Teaser": [
        "Mirko Miloczewski nennen alle Millo. An einem kalten Wintertag macht sich Millo auf zu einer Expedition und zieht sich warm an. Millo sucht Yeti, den Schneemenschen. Da er weiß, wo er den Yeti finden wird, macht er sich zielstrebig auf die Reise. Er nimmt Greta und Peter mit, denn so eine Expedition ist nicht ganz ungefährlich. Alle 3 sind mit dem Schlitten unterwegs und kommen ihrem Ziel näher, wie sie meinen. Und dann haben sie ihn - im Stadtpark war er...."
    ],
    "Beurteilungstext": [
        "Ein Kinderbuch, was über Mut und Selbstbewusstsein eines ca. 5jährigen Jungens erzählt. Der Autor spricht eben diese Zielgruppe an und beschreibt einen Ausflugtag des Jungen Millo. Der hat Großes vor und läßt den Leser und Zuhörer auch genauestens daran teilhaben. Verblüffend offen und selbstbewusst erzählt er nämlich von einer Expedition zum Yeti, die im Grunde genommen ein Ausflug zum Schneemannbauen ist. Die Kleinen erfahren allerhand Sachinformationen und können so den eigenen Horizont vergrößern. Einfach, aber schön sind die Illustrationen. Die Figuren sind übernatürlich groß dargestellt und der Zeichner verzichtet auf kleine Details. Einfach und klar ist die Botschaft der Bilder. Die Schrift ist als Erstleserschrift groß gewählt und wird eingerahmt in die Zeichnungen. Diese wiederum unterstreichen die Textbotschaft. Herrlich einfach und lustig, diese Geschichte. Für kleine Abenteurer genau richtig."
    ]
}